-0.64901,-1.2945
1.1812,-0.82793
-0.75845,-0.56477
-1.1096,-0.22896
-0.84555,0.85572
-0.57266,-1.3018
-0.55868,-0.073907
0.17838,-2.1976
-0.19686,0.86401
0.58644,0.64533
-0.85189,-1.194
0.80032,-0.034896
-1.5094,-0.71279
0.87587,2.619
-0.24279,2.7946
0.16681,0.62913
-1.9654,1.8258
-1.2701,-0.15124
1.1752,1.0989
2.0292,-0.35064
-0.27516,-1.1811
0.60366,1.6137
1.7813,0.41202
1.7737,-1.3478
-1.8651,1.3854
-1.0511,0.70046
-0.41738,0.3222
1.4022,0.17434
-1.3677,-0.73382
-0.29253,0.22769
1.2708,1.1973
0.066009,-1.4364
0.45129,-1.5696
-0.32221,1.1465
0.78841,0.45434
0.92874,0.14218
-0.49079,-0.80043
1.7972,-1.1569
0.5907,0.90795
-0.63579,-0.31883
0.60335,-1.3672
-0.53525,0.5563
-0.15508,-0.70603
0.61212,1.1493
-1.0443,1.3797
-0.34563,-0.017873
-1.1714,0.26801
-0.68559,0.033642
0.92622,0.38838
-1.4817,0.6891
-0.55806,-0.8786
-0.028453,1.0702
-1.4763,0.16491
0.2589,-1.3851
-2.0187,-0.99082
0.19974,0.37842
0.42586,-1.2994
-1.27,-0.98346
-0.48522,-1.0064
0.59431,1.5848
-0.27646,0.48358
-1.8576,0.95962
0.040731,-0.54597
0.28297,0.2654
0.063561,0.33707
0.43343,0.37595
0.42286,-1.0493
1.2995,1.0739
-1.0498,1.4007
-1.7864,0.078071
0.81604,-1.1111
-0.32821,0.92983
-1.2146,-1.4069
1.1118,-0.49044
-0.5075,0.79646
0.89873,0.32072
0.37722,1.825
1.4524,0.12584
0.44695,1.2833
0.64582,0.94028
-0.62368,-0.91269
-0.59524,-0.53783
1.6113,0.27304
-0.349,-0.18887
0.16417,-2.04
-1.6366,0.54394
0.58137,-0.98905
-0.12891,-1.3857
0.43286,1.0553
-0.24511,-1.7633
-1.0854,-0.91417
1.6808,-2.5659
0.17641,1.4273
-2.0714,0.098617
0.21109,-0.67137
-0.58285,0.86069
0.018169,0.033095
1.4948,-0.17783
-0.4248,0.47108
1.6862,-0.71469
0.36549,-1.0254
-1.0971,-0.63126
1.9302,-0.37078
0.62294,0.50367
0.65728,0.33458
-1.4634,-1.2109
0.85394,2.2028
0.58049,0.73961
-0.9186,0.51102
0.79487,0.60955
0.51754,-1.2498
0.49461,-0.069658
0.66393,-0.19467
-0.71017,0.40809
-1.3068,-0.13123
-0.74159,0.34506
-1.4677,0.56766
-0.39167,0.68284
0.84166,0.23988
0.082784,-2.5507
0.31467,0.4555
0.78981,1.1031
-0.80122,1.4604
-0.32565,-1.1479
0.28468,-1.1294
1.3096,-0.42935
0.16037,-0.57555
-2.1182,1.1401
0.70708,0.27973
-1.0434,0.77732
1.0682,-0.067074
-0.31723,-1.1278
1.4797,-2.2283
0.69909,-0.57848
0.1591,-1.6413
-0.94548,0.77695
-0.79301,0.37265
-2.0492,0.65408
-2.3588,-0.017981
-1.6593,-0.76411
-0.95812,-0.63058
0.22573,-0.12316
0.21767,-0.76338
-0.82324,-1.4314
-1.0128,1.0923
1.2153,0.97465
0.15628,-0.54874
-0.40026,0.66093
-0.44178,-0.27472
0.4481,1.5417
-1.6646,0.45062
0.21489,0.36228
0.54956,-0.81058
1.3923,0.15697
-0.61923,0.47419
-0.012601,-0.59352
0.77361,1.7774
1.6292,1.9001
-1.41,-0.73
-1.7473,0.56714
-0.47225,1.7753
-0.060088,-1.2857
0.43888,1.7497
0.20122,-1.2583
-0.5833,0.98947
0.7648,0.27894
0.14077,-0.46537
-0.37294,-0.48854
0.10547,0.66581
1.2706,0.41811
0.49913,1.4626
-0.39702,0.33525
-1.79,2.403
-0.26689,0.39367
0.17843,-1.4665
-0.43419,-0.12605
0.46451,-0.76337
-1.1214,2.1211
-0.35908,-0.41657
0.53227,2.2642
-1.6435,0.082321
0.4669,-0.52001
0.11211,-1.1807
1.4965,-0.63362
-0.5865,-2.1519
-1.7189,0.40217
0.74104,-0.19504
1.0877,2.2308
0.75667,2.3999
1.6297,-0.6924
-1.375,-0.16223
-1.052,-0.057558
0.47752,0.17405
1.2222,0.44486
2.3707,-0.042691
0.11459,-0.19824
0.27907,-0.36731
0.75208,1.4658
-0.26026,-1.7868
-0.025993,1.0935
0.096724,-0.8563
0.14414,1.1066
1.8562,-0.29052
1.1003,1.469
-0.36411,-0.86565
0.47199,-1.4043
-0.83911,0.84792
-0.52363,0.097521
-1.3888,-0.33316
0.004248,-0.99365
-1.4048,-1.1436
2.629,0.66935
0.81953,1.5696
-1.4434,0.44797
-0.49973,-0.04865
-0.51796,2.0596
-1.8027,-0.012816
0.98844,-0.28684
-0.36075,-0.52138
1.1327,2.7392
0.40902,-0.47774
0.81912,-0.0040746
0.31966,-0.16489
2.415,1.2031
-0.11403,-0.31775
0.11802,-0.40617
0.99969,0.63302
-0.35766,-0.49704
-0.055026,-0.72818
0.24146,1.2496
-2.7352,0.92506
0.19351,0.19709
-0.1454,-0.65118
1.4546,0.53955
-0.39669,0.6026
1.7289,-0.56268
0.25189,-1.0173
-0.61855,2.4542
0.97633,-0.11274
0.13099,1.013
-0.36436,-1.1719
-0.093312,0.55341
0.48981,-0.14287
1.4014,-0.18708
-0.27422,-1.1311
0.67582,-0.84168
0.19058,0.41292
0.67036,0.27051
0.20836,1.1119
0.32787,-2.418
-0.8232,0.98498
0.33191,0.0039243
0.34391,-0.92415
0.37975,-0.43856
1.0889,-0.81073
0.99486,1.3512
0.20861,0.66382
-0.39919,1.176
0.50601,-0.40725
-0.12776,0.7815
-0.25492,0.16296
-0.078043,1.1387
-0.31465,-0.042322
-0.30842,0.44242
0.40127,0.6467
-0.12942,-0.51705
1.3277,0.064634
0.67079,-0.30754
-0.69171,0.34772
-0.049218,1.0058
-0.32673,-0.20802
0.30325,-0.59741
2.0565,1.6409
1.7072,0.22708
0.51074,-0.37702
-0.18769,0.42814
-0.58943,-0.13205
1.1433,-0.88652
0.13037,-0.18067
0.58646,-0.24024
0.1034,-0.9362
0.26454,1.3306
0.054799,0.44063
0.22125,0.27691
0.091006,0.76075
-0.15012,0.13696
-0.5613,0.54583
-1.7992,1.6676
-0.47073,1.7375
-0.90259,-1.2546
0.54784,-1.2945
-0.73521,-0.96499
1.4759,0.46936
0.50582,-1.7018
0.69266,-1.7837
0.13488,0.0071147
-1.0688,-2.0141
-0.16759,-0.37682
-0.46288,0.11562
-1.2636,-0.1407
0.42039,0.14005
-0.32432,0.13119
1.3411,-0.40737
1.2137,0.69438
-0.50278,0.52641
-1.1164,0.34089
-0.92207,0.071898
-0.0010418,-0.43772
0.15349,0.41584
-0.90397,1.6951
-0.93833,0.36712
0.43389,1.5988
-0.15315,-0.20783
0.40244,0.48846
-0.65255,-0.84155
-1.9577,0.25808
0.067693,0.034554
-0.04732,-3.0507
-0.69692,0.05527
0.45755,1.0424
0.079304,-1.4335
0.47959,0.20737
-2.3604,0.84344
0.44401,0.62328
-0.32499,0.66586
0.097206,-1.7471
1.1148,-0.69142
-1.1571,1.0214
-0.47571,1.3616
0.52258,0.28082
0.88714,1.3743
0.016548,1.4011
0.90254,1.8977
1.1548,2.2169
0.87253,-2.6485
-0.46916,-1.2123
0.59653,-0.78022
0.83609,0.98407
0.30449,-0.83887
1.1553,0.91642
-1.5715,0.99272
1.6365,-0.029265
0.55483,-0.35839
-0.58543,-0.44742
-0.51044,-0.32534
0.4927,1.4056
-0.65083,0.96804
0.92687,-0.82151
-0.18812,-1.8004
0.32083,1.7988
1.4203,0.75941
-1.19,-0.32473
-0.92844,1.3476
1.3096,-0.17096
0.11535,-0.2922
2.8281,1.9901
0.2741,1.8309
0.11569,0.071057
-1.0704,1.2241
-0.7097,1.9083
-1.5131,0.052218
-1.137,-0.31881
1.2722,0.70424
-1.1441,-0.094564
-0.52616,0.42238
1.5782,1.5866
0.57864,1.0897
0.57857,-0.57157
-1.4228,-3.0037
-0.19039,-0.65719
0.18602,0.11242
1.484,-0.4164
-0.67947,0.62239
-0.53006,1.4815
-0.85949,-0.83779
1.3064,1.8648
-0.08633,2.0024
-2.1504,2.4866
0.025232,-1.4254
-1.1356,-1.0468
0.71495,-2.5007
-0.61684,-0.49223
-0.95546,-1.2272
0.13556,-0.36003
0.63797,-0.70342
-0.36698,1.675
1.0614,-0.044736
0.056378,-0.74877
0.085413,0.0087426
1.836,0.77583
0.67536,-1.0894
-1.5458,0.74039
0.35363,1.5251
-0.09244,0.28118
0.63839,1.7184
-0.86296,-0.65954
-0.88645,-0.15371
-1.2232,-2.0313
-0.18564,-0.41077
-1.7205,1.5249
0.1518,-0.62656
0.81651,1.4111
0.5778,1.2581
1.0639,1.6079
-0.80324,-1.426
0.79863,1.0029
-0.31509,0.34149
1.1861,-0.9524
0.084939,-0.97512
-1.425,-1.0122
-1.4541,-0.095074
-1.8093,-2.4795
-1.4629,-0.65514
-0.13807,-1.0311
-1.0056,0.79597
-2.7333,0.20681
1.6924,1.7561
-0.28339,-0.78069
1.1221,0.39098
-0.30695,-0.93417
-0.16853,0.058291
-0.081308,0.60627
-0.037718,2.0466
2.0914,-1.2077
-0.41063,-0.56002
2.9576,-0.51238
-1.6874,-2.2407
0.29026,-2.918
-1.4694,-0.013986
0.44906,-1.0099
-1.6959,-0.57651
0.060461,0.50371
-1.1476,-0.47409
1.9939,-0.57709
0.92089,0.27681
1.6227,-0.27242
-0.48755,0.61366
-1.1956,-0.01254
-1.4195,0.076242
0.46822,-0.37131
1.3299,-0.50087
2.3047,-0.67409
0.85143,0.87701
0.52184,1.1255
3.2013,2.0605
-0.33045,-1.4219
-0.89636,1.1206
-0.99395,1.3499
-1.8717,-0.59497
1.4979,-1.0476
-1.6324,0.30639
-0.85182,-1.252
1.0774,-0.20225
-0.4401,-0.85653
3.328,1.0202
0.1038,-0.020325
-0.77308,1.8209
0.67737,0.91252
-0.69682,-0.059429
-0.075351,1.1329
0.026019,-0.67441
2.0055,0.21822
-1.1296,0.84535
0.65424,-0.34265
1.4192,-2.3205
-0.82561,-0.0094125
0.053107,-0.05606
-0.85585,0.23013
1.7681,-1.3299
0.18287,-0.74897
0.43102,-1.6757
-0.22882,0.62952
0.394,0.72247
-0.52587,-0.79034
-2.447,0.56743
0.15525,-0.94368
-0.83408,-2.4956
0.078468,-1.3278
1.3127,1.3421
-0.13512,0.98937
-1.41,-0.64997
-0.1627,1.5909
2.1098,0.95248
1.4626,-0.34412
0.91411,-0.14683
1.5121,0.41293
-0.45416,-1.5627
-1.1394,-0.72691
-0.7055,-0.94135
-0.3311,-0.95651
-1.5208,0.47731
0.16528,0.1041
-0.48787,-0.43699
0.58697,0.37033
-0.90337,-0.91161
0.37101,-1.5198
-1.2601,-0.11887
0.22289,-1.1674
-0.41306,-1.038
-1.0167,0.92182
-0.32602,-1.4819
0.2835,0.89751
-0.011569,-0.66299
0.036267,-2.4232
-1.0983,0.2268
0.37568,1.168
0.17005,1.9324
1.1397,-0.71089
1.6575,-1.2425
0.33825,0.4437
-1.819,0.85334
-0.80227,1.5209
-0.57442,0.33765
-0.23426,1.0889
-0.3052,0.99586
1.6394,-0.21463
-1.8972,0.2825
1.3185,0.011797
0.53236,0.57655
0.6016,0.37286
0.46719,0.024421
0.20818,1.0765
-0.057599,0.010723
-3.0652,0.60275
-0.61249,-0.57914
-0.016162,-1.7753
0.7769,1.2915
-0.090006,0.67796
-0.14879,-1.0797
-0.88777,0.11174
-0.77609,1.1091
0.62923,-0.42715
-1.3158,-1.2563
0.89874,0.32587
-0.82513,-1.0349
-0.5755,0.50123
0.025326,0.20284
0.56257,0.81738
-0.1721,-1.7169
-0.64815,-1.5481
-0.15314,0.39102
0.017124,-0.5225
0.82781,-1.2955
0.69892,-0.46399
-1.0062,0.56174
-2.2442,-0.49254
0.1023,1.829
0.90181,1.0127
-3.0058,2.6059
0.65924,0.4104
0.76034,-0.35049
-0.16992,0.61401
0.70862,-0.75327
0.62876,-0.39564
-0.76357,0.06061
1.1877,0.38604
1.164,1.9941
0.43791,-1.4861
0.76436,0.91031
0.17209,1.6711
-0.63598,0.29138
0.26363,1.3783
0.55799,-0.8693
-0.32351,1.4105
0.23893,-0.64584
-0.66854,1.2637
0.54218,-2.0363
-0.73494,-1.2284
0.61639,2.6872
-0.2288,0.41492
0.821,-0.3262
-0.15523,-0.9225
-1.3083,0.2959
0.77757,-1.7095
-1.1801,-0.56575
0.28778,-0.85119
0.44929,0.48824
-0.53607,0.50928
-0.92097,0.46683
-0.6865,1.5519
-1.0929,0.57497
-0.48899,0.30547
-0.91877,-0.27161
-2.0317,1.6369
0.63901,-0.91833
1.1359,1.7477
-0.78561,-0.48381
-1.0122,0.14041
-1.0084,0.59412
1.5212,-0.66745
0.66327,-1.3845
0.071216,0.028276
-0.58443,0.66131
1.0146,1.074
-0.22694,-0.25585
0.64405,1.4058
0.20088,-0.047369
-0.029035,0.4734
-0.99231,0.19393
1.9836,-1.8764
-0.93956,-1.0799
-1.6095,1.7666
-0.21979,0.49016
-0.27741,0.58245
-0.88015,-0.55039
0.58393,0.12724
-0.36393,0.53892
0.41669,0.1629
1.2868,-0.66167
-1.4039,-0.30935
0.44425,-1.9702
1.4409,2.5259
0.33288,2.6091
0.516,-2.4193
-0.23206,0.61949
0.60235,-0.46013
0.61254,0.38008
-0.39201,-0.29842
0.71083,0.32193
-1.8948,-0.59899
1.3583,-0.71976
-0.9118,1.4881
-0.14964,1.4255
-0.40114,0.38177
-0.57758,-0.65111
2.0039,1.3434
-0.50964,0.16817
0.088893,0.74056
-0.019698,-0.92069
-0.73807,1.476
-1.1522,-0.38937
-1.9476,0.35296
0.026296,0.48056
-0.82589,0.52409
-0.71799,-0.66452
-1.941,0.73155
0.98755,0.97603
-1.6631,0.22854
2.0633,-1.4552
-2.082,-1.2159
0.27316,-0.7461
-2.3767,-1.2401
0.37947,-1.7071
-0.99132,0.51637
0.094217,-1.6226
0.6438,-1.4768
-0.78296,0.67614
0.14862,1.7483
-0.92078,0.27275
1.1911,2.2269
0.98094,-0.93069
-0.72343,1.9739
2.3344,-0.99376
-2.5512,0.78159
0.90251,0.97075
0.22713,0.40848
-0.35125,-0.031097
0.52746,2.1327
0.87485,-0.69137
3.0681,2.425
-0.61888,0.38208
0.75752,1.5841
1.0286,-1.4733
0.05284,0.59169
0.21086,0.20936
1.1525,-0.035218
-0.35229,-1.1686
0.51556,-1.0163
0.96218,-0.86409
0.38716,-1.1374
-0.2252,1.2668
0.24943,0.005286
-1.916,-1.9376
0.71121,1.5461
1.5629,0.1084
-0.82538,1.2718
-0.56813,0.048317
-0.72367,-0.21634
-1.009,1.3039
0.73051,-1.1427
0.08521,1.3113
-0.42797,2.0516
-0.59636,-0.25656
-0.7456,-1.1463
0.64289,0.87125
-0.19315,-1.0064
-0.12576,1.7326
-0.073857,-0.48975
1.1222,-0.5834
-0.25294,1.0985
-0.39501,2.3646
0.3939,0.17903
-0.67854,1.2514
-0.16574,-0.41915
-0.50915,1.7689
0.48916,-0.56949
1.2261,-0.96324
-0.15218,1.9307
0.83897,-0.12008
-0.066415,0.81251
0.88203,0.3776
-0.6145,0.47901
-0.11319,-1.2098
0.75223,2.5437
0.50225,1.2876
1.7715,0.14431
0.025691,1.5269
-0.005188,-1.0066
1.0344,0.21145
-1.6026,-0.31653
0.32243,0.30473
2.312,-0.78956
0.025913,1.3909
-0.50997,-1.2978
1.3905,-1.154
-1.4576,-1.4143
0.66631,-0.47154
0.22473,-0.27075
2.0988,1.7716
0.47945,-0.76187
0.65031,0.46314
-1.7261,0.043234
1.6037,-0.2723
-0.54618,-0.6661
-0.51032,-0.83533
2.0987,-1.3638
1.0218,0.39923
-0.20403,0.1033
-1.149,-0.14087
1.0573,0.80489
-0.070703,-0.7028
-1.6616,1.6409
1.7255,0.54412
0.98113,0.81714
-0.018408,-0.49318
1.3002,-0.44324
-0.28201,-0.11235
0.24248,1.5731
-0.27355,0.90091
0.018418,-0.043938
-1.5374,0.33622
2.5413,1.1274
-0.42599,1.4977
-1.3051,0.5367
-0.60764,0.97981
-1.882,-0.16296
0.38912,0.8848
0.027765,0.3283
0.014656,0.081479
1.4767,1.6435
0.2532,0.28577
0.65349,1.0281
-0.16508,-2.1103
0.53632,0.15446
-0.55925,0.55129
-0.43161,1.6134
-1.8708,-0.30844
-0.47318,1.7418
-1.1951,-0.62439
-0.2947,-0.9508
0.71194,0.83473
-0.31718,1.0968
1.3456,1.8092
0.43157,-1.2636
-0.29022,-0.31919
0.80478,-1.3589
0.3495,-0.48573
-0.67494,1.0313
1.1598,0.9163
-0.038383,-0.13515
-0.49773,-0.3111
-0.16546,0.40839
0.25528,0.073391
-0.51403,0.15463
1.0498,0.19042
-0.29701,-0.20427
0.20754,0.71034
-0.016294,-0.79803
0.8854,0.4156
1.7003,0.94582
-1.692,-2.3787
0.1871,1.122
1.2994,-1.7296
-0.17734,0.15825
1.2669,0.34885
-0.64295,-0.55967
0.58898,1.5545
0.49173,0.47164
-0.31779,-0.3546
-1.0803,0.81124
-0.23669,-1.3039
1.0375,0.23346
-0.50567,-2.2609
1.1492,0.17511
-1.6583,-1.4298
-0.65855,0.3968
-1.1747,0.47635
0.40598,0.051929
0.56116,0.46037
0.76368,0.50373
-0.25125,0.87404
0.58027,0.14766
-0.85969,-0.16093
-0.24169,-0.33986
-0.23538,0.60254
-0.51847,0.18817
-0.94976,-1.0019
0.23959,0.1745
0.55873,0.94986
0.35034,-0.9461
0.27518,0.93583
-1.0817,1.0182
-1.5347,-0.0010455
0.024216,-0.83325
1.5714,-0.62875
-2.0382,1.1049
-0.2052,-1.253
-0.17902,-0.20231
-0.010316,0.29001
-1.2444,-0.74252
-0.70439,0.11172
-1.0943,0.53333
1.1291,-0.40915
1.1184,-0.046343
-0.22527,-0.018329
0.071858,1.2127
-1.3792,0.43819
0.029911,-0.14998
-0.39748,0.77605
1.6918,-0.074962
0.75512,0.067911
0.52388,0.36159
-0.47437,-0.97032
-0.01975,0.69774
3.138,0.50942
1.5527,1.5208
0.062457,-1.7904
0.44626,-0.14692
0.21611,1.8182
-0.16501,0.43517
-0.26118,1.161
0.12839,-0.29025
0.84284,0.69837
0.76431,1.654
0.22026,-1.5656
1.0406,0.82424
-1.3248,0.92686
0.6355,-0.66773
-1.6774,-1.1645
-0.31441,-1.2647
-0.59696,1.5931
0.41757,-1.507
-2.3045,1.43
-0.77505,1.4275
-1.6207,-0.95206
0.42763,-0.46247
0.23606,1.8661
-0.17907,0.29643
-0.20645,-0.14721
1.2189,0.028662
-0.039144,0.2411
0.078823,-0.21385
-0.68411,-0.98718
0.10821,-1.2869
-0.19316,-1.5509
-0.18183,-2.2816
-0.40038,0.19728
-0.20964,1.0489
-0.10375,-0.57341
1.3308,-0.88577
-0.54198,-0.18506
0.97911,0.24993
0.27554,-0.26617
1.4491,0.25379
-0.30701,3.4562
-0.72671,1.2071
1.2789,0.38558
-2.7642,-0.055108
-0.56817,0.3867
2.7633,-0.88557
0.060634,2.3265
-2.0634,-1.0293
0.03064,1.001
0.32629,0.67325
0.73146,0.94618
1.3549,-0.84222
-0.21532,-1.3908
0.53649,-0.29527
0.57438,0.91807
-0.015417,-0.12703
0.059954,1.2318
-0.91766,-0.12033
-0.52429,0.24901
-1.0504,1.4957
0.30608,0.60944
-0.05759,-0.88214
-0.17782,-0.1179
1.4819,-0.71249
0.13151,0.079739
-0.052032,-0.41053
-0.55009,-1.2221
-1.734,0.6576
-0.38742,0.40028
-2.3651,1.4157
-0.57126,-0.86984
0.010069,0.72335
1.2557,1.186
-0.82076,0.4087
0.30546,-1.3122
-2.9113e-05,-0.60099
-2.2438,-0.075575
-1.8633,0.14054
-0.19561,-0.082945
1.2257,-0.1171
-0.60355,0.19451
0.6782,1.2711
-0.72632,0.90454
-1.0727,0.42868
-1.3025,0.27024
-0.22962,1.4692
-0.65665,0.2742
0.38152,0.37247
-1.4488,-0.80785
-0.97811,0.9037
-1.2244,-1.6192
-1.0771,-1.9973
0.62358,-1.6443
-0.4579,0.27967
-0.56176,-0.51516
0.13621,-0.50515
1.0215,-1.8988
1.9361,-1.1095
1.5614,0.85315
1.359,0.041763
-1.8648,-1.2345
-1.7171,0.10696
-0.061872,2.0617
-0.70529,2.1461
1.1074,-0.19449
-0.044768,-0.25271
0.11854,0.8251
0.87822,-0.98763
-0.079947,-0.22789
0.59015,-1.1543
-0.55475,0.47098
-0.61567,-0.23418
-0.68904,0.19478
0.11654,1.281
-0.8556,0.48892
0.79691,-0.19633
-2.4642,-0.69716
-0.47459,0.95634
0.56304,-1.8828
-0.55289,1.192
-0.29493,0.28299
0.12495,1.2783
0.10907,0.25534
-1.1198,-0.86748
0.47295,-0.64549
1.7786,0.044413
0.80002,2.2575
-0.65802,-1.4841
0.10785,0.044252
-0.51731,-0.2843
0.11984,1.7395
1.9309,1.1577
-0.53268,-0.24829
0.92254,-0.56931
-1.0367,-2.366
0.27965,-1.1828
-0.52311,-0.46397
0.54627,0.15884
0.70533,0.96523
0.46846,-0.84776
-0.10002,2.336
-1.0679,0.56246
-2.5887,1.4653
-0.44882,3.1142
-1.4403,-0.20556
0.93478,0.032179
0.37598,0.077148
-0.25127,-0.4922
0.49686,-0.99945
0.092671,-0.4585
-1.9643,0.79295
-0.40111,0.56006
-1.0939,0.78368
-0.6783,0.086632
-1.97,-0.92005
0.30721,0.20304
0.04692,-0.36707
0.21587,-0.58046
-0.23729,0.78282
1.666,-0.22953
-0.22297,-0.14088
-1.3709,1.0299
0.85611,0.74853
0.72193,-1.1979
0.71289,-1.2189
0.64442,-0.76212
-0.99888,0.049347
-1.0027,0.048193
-1.0081,0.046655
-1.0114,0.043578
-1.0135,0.040501
-1.0155,0.03704
-1.0186,0.03204
-1.0212,0.029732
-1.0253,0.026655
-1.0281,0.023578
-1.0312,0.018578
-1.032,0.013963
-1.032,0.0093472
-1.0309,0.0051164
-1.0284,0.0031933
-1.0248,0.0031933
-1.0214,0.0031933
-1.0189,0.003578
-1.014,0.003578
-1.0102,0.0051164
-1.0076,0.0062703
-1.0043,0.0074241
-1.0012,0.0078087
-0.9976,0.0081933
-0.99503,0.010116
-0.99298,0.014347
-0.99272,0.018578
-0.99247,0.02127
-0.99683,0.0074241
-0.99939,0.0020395
-1.0017,-0.0018067
-1.0061,-0.009499
-1.0048,-0.0056528
-1.0032,-0.0037297
-1.0089,-0.011422
-1.0114,-0.015268
-1.0155,-0.016422
-1.0191,-0.017576
-1.0217,-0.015653
-1.0243,-0.011037
-1.0207,-0.006422
-1.0176,-0.0021913
-1.0161,0.0012703
-1.0245,-0.011807
-1.0245,-0.015653
-1.0243,-0.01873
-1.0222,-0.021037
-1.0184,-0.022576
-1.0132,-0.022576
-1.0102,-0.022191
-1.0071,-0.019114
-1.0048,-0.016422
-1.0027,-0.01296
-1.0007,-0.010268
-0.99914,-0.0071913
-0.9976,-0.0056528
-0.99503,-0.0033451
-0.99196,-0.0018067
-0.98939,-0.0010374
-0.98632,0.00011645
-0.98375,0.0058857
-0.98272,0.012809
-0.98272,0.016655
-0.98478,0.021655
-1.0073,0.03204
-1.0061,0.03627
-1.0043,0.037424
-1.0012,0.037424
-0.99888,0.038193
-0.9976,0.038193
-0.99811,0.035116
-1.0004,0.032809
-1.003,0.030886
-1.0043,0.030886
-1.0063,0.029732
-1.0245,0.01204
-1.0245,0.014347
-1.023,0.014732
-0.99631,0.051655
-0.99247,0.05127
-0.98939,0.049732
-0.9858,0.04627
-0.98349,0.043193
-0.98221,0.038578
-0.98042,0.035501
-0.97913,0.03127
-0.9776,0.027424
-0.97657,0.023578
-0.97452,0.018963
-0.97247,0.012424
-0.97093,0.0074241
-0.96913,0.003578
-0.96785,-0.00026815
-0.96632,-0.0018067
-0.96478,-0.0052682
-0.96093,-0.0079605
-0.95888,-0.011037
-0.95606,-0.014114
-0.9976,-0.0071913
-0.99503,-0.009499
-0.99349,-0.014114
-0.99119,-0.01873
-0.99016,-0.022576
-0.9899,-0.02373
-0.9799,-0.024884
-0.98298,-0.024884
-0.98632,-0.025653
-0.98837,-0.027576
-0.99119,-0.02873
-0.99298,-0.02873
-0.99555,-0.029499
-0.99914,-0.029499
-1.002,-0.029499
-1.0045,-0.030268
-1.0068,-0.031807
-1.0094,-0.034114
-1.0055,-0.03296
-1.003,-0.03296
-1.0002,-0.03296
-0.99811,-0.03373
-1.0022,-0.035268
-1.0055,-0.036807
-1.0071,-0.03796
-1.0081,-0.041807
-1.0038,-0.038345
-1.0004,-0.037576
-0.99683,-0.037576
-0.99426,-0.037191
-0.99016,-0.037191
-0.98734,-0.037191
-0.98298,-0.037191
-0.9799,-0.037191
-0.97606,-0.037191
-0.98632,-0.039114
-0.9858,-0.042576
-0.98606,-0.044884
-1.0166,-0.022063
-1.0148,-0.022448
-0.96298,-0.0062938
-1.0043,0.047937
-1.0063,0.047168
-1.0102,0.04486
1.0011,0.049347
0.99728,0.048193
0.99189,0.046655
0.98856,0.043578
0.98651,0.040501
0.98445,0.03704
0.98138,0.03204
0.97881,0.029732
0.97471,0.026655
0.97189,0.023578
0.96881,0.018578
0.96804,0.013963
0.96804,0.0093472
0.96907,0.0051164
0.97163,0.0031933
0.97522,0.0031933
0.97856,0.0031933
0.98112,0.003578
0.98599,0.003578
0.98984,0.0051164
0.9924,0.0062703
0.99574,0.0074241
0.99881,0.0078087
1.0024,0.0081933
1.005,0.010116
1.007,0.014347
1.0073,0.018578
1.0075,0.02127
1.0032,0.0074241
1.0006,0.0020395
0.9983,-0.0018067
0.99394,-0.009499
0.99522,-0.0056528
0.99676,-0.0037297
0.99112,-0.011422
0.98856,-0.015268
0.98445,-0.016422
0.98086,-0.017576
0.9783,-0.015653
0.97574,-0.011037
0.97933,-0.006422
0.9824,-0.0021913
0.98394,0.0012703
0.97548,-0.011807
0.97548,-0.015653
0.97574,-0.01873
0.97779,-0.021037
0.98163,-0.022576
0.98676,-0.022576
0.98984,-0.022191
0.99292,-0.019114
0.99522,-0.016422
0.99728,-0.01296
0.99933,-0.010268
1.0009,-0.0071913
1.0024,-0.0056528
1.005,-0.0033451
1.008,-0.0018067
1.0106,-0.0010374
1.0137,0.00011645
1.0163,0.0058857
1.0173,0.012809
1.0173,0.016655
1.0152,0.021655
0.99266,0.03204
0.99394,0.03627
0.99574,0.037424
0.99881,0.037424
1.0011,0.038193
1.0024,0.038193
1.0019,0.035116
0.99958,0.032809
0.99702,0.030886
0.99574,0.030886
0.99369,0.029732
0.97548,0.01204
0.97548,0.014347
0.97702,0.014732
1.0037,0.051655
1.0075,0.05127
1.0106,0.049732
1.0142,0.04627
1.0165,0.043193
1.0178,0.038578
1.0196,0.035501
1.0209,0.03127
1.0224,0.027424
1.0234,0.023578
1.0255,0.018963
1.0275,0.012424
1.0291,0.0074241
1.0309,0.003578
1.0321,-0.00026815
1.0337,-0.0018067
1.0352,-0.0052682
1.0391,-0.0079605
1.0411,-0.011037
1.0439,-0.014114
1.0024,-0.0071913
1.005,-0.009499
1.0065,-0.014114
1.0088,-0.01873
1.0098,-0.022576
1.0101,-0.02373
1.0201,-0.024884
1.017,-0.024884
1.0137,-0.025653
1.0116,-0.027576
1.0088,-0.02873
1.007,-0.02873
1.0045,-0.029499
1.0009,-0.029499
0.99804,-0.029499
0.99548,-0.030268
0.99317,-0.031807
0.99061,-0.034114
0.99445,-0.03296
0.99702,-0.03296
0.99984,-0.03296
1.0019,-0.03373
0.99779,-0.035268
0.99445,-0.036807
0.99292,-0.03796
0.99189,-0.041807
0.99625,-0.038345
0.99958,-0.037576
1.0032,-0.037576
1.0057,-0.037191
1.0098,-0.037191
1.0127,-0.037191
1.017,-0.037191
1.0201,-0.037191
1.0239,-0.037191
1.0137,-0.039114
1.0142,-0.042576
1.0139,-0.044884
0.98343,-0.022063
0.98522,-0.022448
1.037,-0.0062938
0.99574,0.047937
0.99369,0.047168
0.98984,0.04486
