8.1296,39.316
-27.085,-34.267
13.722,30.346
23.805,30.989
39.353,17.43
7.0956,39.315
17.985,21.271
-14.01,-21.352
39.838,4.6687
-30.946,-4.2681
10.878,38.883
-38.812,-17.513
20.441,38.788
61.329,-4.3338
55.595,8.3983
-26.887,3.3915
43.969,32.449
25.411,32.226
53.176,-13.515
-34.187,-30.444
3.1832,36.865
54.338,-3.953
-29.639,-22.246
-32.206,-36.818
42.307,31.835
36.73,20.977
-12.48,11.361
-32.587,-20.979
19.216,37.757
-12.858,8.0198
54.658,-13.242
-8.6065,-24.089
-12.378,-26.512
43.071,6.6278
-33.512,-9.6238
-36.101,-15.287
8.244,32.282
-32.123,-35.677
46.293,-10.23
15.667,24.815
-12.334,-29.409
-15.897,15.251
3.2587,-27.925
49,-7.7679
45.979,17.176
11.986,-1.0805
31.293,25.783
21.682,22.643
-33.427,-12.637
36.479,29.282
8.5668,33.964
43.118,2.088
30.978,31.656
-9.2042,-26.527
20.988,41.998
-32.639,3.6499
-10.254,-28.903
17.1,39.041
7.0118,35.036
53.807,-3.5933
-17.771,10.127
39.511,31.749
5.1736,-31.329
-35.407,2.8645
-31.261,5.877
-33.936,-1.8695
-7.9372,-32.258
54.041,-14.22
46.444,16.666
32.216,34.405
-13.624,-32.695
40.417,6.5624
15.271,42.044
-27.133,-31.11
38.892,12.221
-34.676,-12.502
54.686,0.35565
-32.539,-22.176
49.436,-4.6101
47.162,-10.308
9.4419,34.628
12.417,28.322
-30.881,-21.971
15.293,-17.988
-13.135,-21.678
35.77,30.749
-9.5849,-34.246
1.3597,38.663
46.7,-6.4404
-10.341,-19.409
15.513,37.572
-18.619,-25.565
48.723,0.64819
33.606,35.643
1.5029,-33.391
39.572,13.154
-53.287,-11.14
-33.21,-26.354
-15.452,12.719
-31.839,-32.633
-6.8756,-32.076
18.428,35.097
-33.542,-30.143
-32.818,-5.7477
-35.129,-7.2709
17.535,41.547
59.68,-4.8824
44.734,-11.385
33.082,21.239
-31.883,-8.7779
-10.799,-30.336
-70.143,8.179
-10.945,-45.842
-11.44,17.166
26.512,31.936
-10.148,17.085
35.441,29.223
-19.16,13.267
-35.643,-12.326
-15.092,-20.458
-32.419,0.58937
49.698,-10.644
46.861,14.458
4.0453,36.52
-7.0571,-29.968
-29.067,-29.844
3.7528,-33.15
40.785,33.048
-35.67,-8.6595
37.667,20.19
-37.097,-20.346
4.2206,35.903
-18.221,-26.142
-9.9263,-40.794
-10.601,-23.452
37.75,18.987
29.994,21.151
37.871,33.266
34.709,36.8
20.932,39.755
15.673,32.904
-72.655,-5.2209
-0.25756,-33.056
9.6162,40.802
42.178,18.253
53.041,-14.659
4.5061,-33.201
-18.629,13.763
13.957,22.9
52.649,-2.5697
34.918,31.34
-33.192,3.1923
-8.3676,-36.668
-32.85,-21.419
-13.217,16.037
4.7637,-29.903
56.353,-5.1483
59.649,-10.683
19.706,38.156
36.224,31.78
50.696,10.062
0.77488,37.588
54.248,-0.80191
-7.675,-27.43
40.878,13
-35.308,-9.9442
6.424,-32.995
11.27,25.343
-26.059,4.0539
-31.172,-17.895
52.174,-3.6
-13.156,10.836
45.4,32.46
-16.282,9.0703
-9.3477,-25.052
17.171,19.361
-7.119,-36.902
52.218,13.135
11.461,24.284
59.69,-2.8728
31.184,33.205
-7.1283,-41.971
-6.4319,-27.405
-30.085,-31.954
-12.748,-17.814
34.673,32.197
-11.763,-45.597
60.234,-5.781
60.338,-3.8596
-31.246,-32.75
26.515,32.757
24.723,28.883
-40.735,-3.4803
-31.433,-17.15
-35.413,-29.984
11.492,-32.05
9.1159,-34.729
53.606,-6.1565
-10.906,-19.279
43.8,2.0466
-0.61337,-30.753
44.61,-0.13263
-33.472,-29.155
55.714,-9.1874
6.0885,32.995
-11.4,-28.279
38.752,17.489
-6.717,12.547
24.942,33.806
-1.5967,-29.08
17.325,40.768
60.154,-17.156
55.001,-6.4075
34.237,29.262
17.977,20.659
52.394,10.267
31.618,35.085
-38.764,-21.251
10.509,25.635
61.669,-5.1633
-6.2373,-42.373
-38.367,-17.261
-77.984,-0.056524
59.705,-15.672
10.249,-26.828
7.7335,-32.557
49.403,-16.3
10.652,25.006
2.3692,-29.186
46.872,-0.92937
39.805,35.433
-36.054,4.6535
4.1369,-28.276
-29.882,-19.338
-17.999,13.154
-32.216,-31.383
-5.4541,-31.226
54.176,9.813
-37.913,-19.687
43.645,-0.45856
4.8748,36.95
-22.169,8.1378
-70.884,7.8885
-34.018,-25.421
3.2786,35.965
-9.9142,-36.724
-31.878,3.2853
-36,-7.7189
45.307,-1.3794
-15.152,-21.542
40.729,16.405
-63.761,3.269
-5.3747,-33.165
-5.8322,-43.155
-25.816,-34.278
54.441,-8.9133
-27.015,2.3904
43.159,7.6542
-7.8055,-43.386
-22.704,6.2301
-4.0888,1.6888
43.94,3.1527
12.182,-7.1642
-16.53,10.224
-29.924,-1.2349
6.4108,-27.949
-33.909,-21.448
-10.553,-44.815
-10.658,16.304
42.316,2.4389
15.105,-18.21
1.6188,-35.026
59.435,-13.551
-30.686,-22.938
-7.9478,-44.156
-18.01,8.5866
17.401,22.223
-26.368,-34.894
11.752,-32.163
-9.7711,-45.644
-1.6281,-30.358
48.008,-0.81244
-29.353,5.5643
-34.662,3.8314
-24.749,3.9864
-4.2318,-0.78539
-15.093,16.126
43.589,31.817
49.714,10.549
10.973,39.957
-11.513,-29.924
10.861,36.054
-30.519,-19.731
-13.444,-25.783
-14.758,-26.044
-55.264,-9.8421
13.108,45.151
9.3423,-26.078
-6.9208,11.872
25.407,31.678
-41.878,-2.5446
-2.9211,5.5186
-29.714,-29.744
51.916,-16.677
-15.513,14.398
31.817,24.656
25.68,24.673
7.347,-30.464
-31.422,4.0707
49.078,14.142
31.058,22.563
53.277,-1.921
12.056,-22.009
-32.324,-1.422
10.222,33.786
34.192,34.545
-53.71,-10.17
-16.015,-19.886
22.197,22.852
46.667,-7.2443
-8.3823,-24.711
-40.132,-3.3171
39.422,34.253
-30.51,-2.0716
-19.638,12.274
-10.862,-22.319
-26.174,-33.175
40.9,20.409
46.472,10.193
-36.773,-4.7906
53.923,-7.918
47.742,2.5225
57.892,-6.0418
59.908,-6.3577
-16.901,-23.017
5.7392,37.962
-8.755,-37.4
49.127,-12.32
-3.8041,-33.567
52.015,-14.625
39.113,29.853
-32.265,-25.045
-8.7047,-44.315
13.484,27.014
14.293,24.304
51.348,-4.1073
40.456,14.218
-24.101,-34.959
-11.017,-20.04
53.832,0.72749
54.032,-16.628
23.734,32.629
45.786,15.591
-35.087,-23.808
10.075,-32.268
61.385,-14.584
54.412,1.3782
-54.017,-9.04
44.345,17.633
51.28,11.767
30.075,32.601
23.205,31.975
52.691,-16.74
25.144,30.165
-13.321,14.276
58.649,-11.591
47.911,-8.1859
-8.5676,-40.957
14.133,47.214
4.1704,-27.496
-54.111,-7.1367
-30.86,-29.778
-15.447,17.371
47.621,10.979
12.748,35.558
59.159,-8.8457
53.514,5.3359
45.204,33.055
-7.8659,-23.948
15.358,38.828
-16.356,-22.604
13.328,28.059
11.771,39.614
8.8178,-32.778
-9.0278,-38.583
49.57,9.1101
-36.754,-19.645
1.5081,-30.678
-54.575,-10.547
57.234,-16.682
-11.722,-32.936
37.154,29.835
52.007,-1.3996
-30.418,8.1444
55.292,-3.879
14.408,32.167
22.816,26.858
13.823,45.177
8.63,-25.965
43.097,31.3
2.8184,-32.841
53.661,-7.078
50.056,-6.2861
56.562,-8.2829
9.0952,40.487
49.031,-11.558
-14.566,9.4829
-26.98,-35.387
-2.204,-29.779
18.153,40.031
27.812,32.916
15.14,46.645
20.736,38.008
2.2377,34.285
38.328,19.546
36.788,36.646
59.466,-11.676
5.4042,31.958
-32.487,-16.003
4.9022,33.369
-3.3535,-1.8632
-23.138,7.8334
54.272,5.0469
-33.671,-35.614
10.933,26.412
-35.971,-33.202
15.061,45.868
-16.201,-20.768
28.787,32.651
-7.6913,-33.165
22.125,39.16
-28.103,5.2493
21.062,34.002
-33.776,-31.667
-34.948,-13.499
-32.45,-28.202
-17.018,14.75
26.185,30.245
29.46,31.782
-7.193,-44.081
-29.093,-30.971
-34.624,-32.992
48.593,-13.395
48.036,-6.9954
61.835,-14.898
3.6425,39.394
42.774,16.668
45.648,16.317
22.771,40.007
-30.133,-35.457
33.461,31.856
10.309,39.586
-37.774,-21.182
7.219,33.005
61.213,-16.776
-55.142,-10.759
50.545,12.54
47.032,-11.213
20.972,23.345
43.345,3.1682
2.9465,-30.616
-29.875,-23.991
39.309,20.732
-10.105,-44.324
-18.061,-25.717
23.3,24.491
-54.598,-11.78
27.886,23.04
-32.311,-36.421
0.5283,-32.703
-12.644,-25.554
-20.793,10.172
-28.977,-1.2021
9.1664,32.36
38.207,35.135
-2.497,-30.87
12.633,46.563
-7.5403,-25.384
55.576,-12.195
41.732,3.7045
20.246,37.355
49.298,6.2432
58.608,-16.166
-30.971,-28.781
-38.707,-19.525
-30.455,-20.512
5.1832,40.702
17.863,36.206
10.533,35.228
5.2724,34.088
34.775,30.06
-54.156,-7.6089
12.727,25.687
-34.686,-5.5436
12.869,36.633
-11.187,-26.078
26.039,31.309
-6.9268,-28.653
5.7125,35.279
39.811,19.426
3.588,40.124
44.218,-4.8596
3.4493,-29.9
-14.43,-20.327
30.084,25.025
47.465,-4.6402
54.484,3.1452
-26.802,-33.369
-31.383,-36.299
-32.747,-0.12236
38.617,31.46
47.713,14.221
-11.213,14.517
42.694,5.0174
41.278,6.0675
-32.373,-27.118
34.009,33.732
-34.516,-22.146
-31.718,-3.6523
-35.116,-6.1272
-62.141,10.019
44.51,-1.4764
-52.659,-11.933
38.434,36.374
12.193,29.072
-10.693,-21.184
52.355,-7.4956
-23.527,6.9621
2.2154,35.183
26.15,23.938
42.473,15.232
-9.4735,-43.178
16.338,41.312
-34.195,-12.879
11.401,37.347
-14.283,15.816
-32.13,7.4172
45.231,-10.522
-10.149,-20.222
7.4255,41.091
-17.998,7.4487
5.8458,-30.762
-13.98,-31.11
-10.515,-42.688
34.213,21.599
24.038,41.331
53.531,3.286
50.215,-12.433
44.748,33.979
-34.048,-7.1811
-11.297,-43.942
-21.244,9.1538
-10.189,-38.049
-9.5601,-43.768
23.016,23.275
-32.263,-17.029
59.316,-7.4722
-11.768,-27.328
47.825,-12.385
52.493,1.5359
-10.151,15.175
48.824,-0.57008
-8.6794,-35.786
47.214,8.0631
1.8322,-34.023
44.577,13.499
-14.82,-23.949
9.353,39.039
61.245,-2.9706
-17.203,8.8471
-12.135,-44.168
2.9744,33.078
32.56,27.627
-14.974,-27.027
19.816,35.126
-3.2397,-33.07
-32.561,-2.4175
-14.746,14.878
32.326,21.855
47.999,12.786
35.245,22.646
-11.247,12.634
22.469,27.866
43.117,32.597
-9.8025,-35.523
57.934,-8.3392
14.484,29.924
27.691,24.717
35.026,21.406
-30.409,-32.558
-13.092,-29.685
-54.036,-10.481
-16.503,16.441
51.663,-13.014
11.275,-22.781
52.388,-5.5421
-65.955,-7.1027
-27.579,6.6145
28.541,24.295
-33.163,-37.836
12.267,38.394
44.298,31.292
-18.67,9.3732
-19.244,10.995
14.958,31.353
-40.005,-5.1268
-17.523,12.07
-41.464,-2.4242
-28.132,-32.582
25.615,33.81
-14.017,-23.796
61.518,-6.3898
60.756,-1.9336
-15.659,-22.218
-20.369,10.742
-8.8319,-42.633
-34.386,-6.2799
13.122,22.832
-34.882,-8.414
22.709,40.429
-28.87,-33.122
47.132,15.359
47.697,5.6084
-13.869,11.398
11.534,29.774
58.939,-14.545
-7.8449,12.374
-25.225,4.2358
-0.69343,-29.183
47.038,13.42
22.523,32.975
34.989,33.842
-28.31,5.9727
32.484,20.3
12.71,30.858
38.007,32.359
50.766,-13.613
32.723,32.6
-33.348,-36.794
20.619,42.965
-0.41539,-33.912
21.543,43.35
-12.439,-24.822
33.458,22.182
-9.8912,-22.904
-13.261,-28.473
35.401,18.607
53.154,2.1845
29.18,23.165
60.424,-6.7214
-24.543,-34.244
51.95,11.625
-34.471,-34.605
39.115,35.131
49.746,-13.129
-32.448,2.5461
13.416,-1.4324
58.977,-2.7166
-23.364,-35.781
61.96,-14.444
-11.749,15.584
54.678,-5.5612
-15.563,-29.37
-26.478,5.2426
-35.941,4.2596
-36.055,-21.07
4.335,37.212
-8.9905,-33.312
-24.82,-34.989
-8.2085,-30.816
44.613,5.844
-61.042,-5.4581
16.007,45.564
53.983,-5.2005
-32.062,-23.128
44.697,15.145
20.38,21.297
17.862,24.285
45.003,16.775
-12.615,-32.466
47.019,1.3074
52.519,9.4295
15.939,23.804
10.022,38.154
46.209,-11.218
3.1748,34.269
51.424,5.5912
6.675,-28.991
-26.802,-32.082
42.421,5.66
54.132,8.7688
-41.549,-1.8981
44.106,13.798
8.4345,-26.793
50.348,10.878
-7.3131,-41.042
-27.675,-35.343
52.979,6.0325
-38.865,-18.525
-23.259,5.4018
-34.269,-11.636
-13.641,16.536
1.4828,36.733
61.003,-3.6969
50.065,-5.2352
-30.928,-23.86
49.325,2.72
-1.795,-28.542
-34.843,-15.368
26.724,35.019
-34.726,1.9904
-34.491,-33.7
47.862,1.9077
6.1527,39.051
-29.471,-36.065
16.712,42.445
-9.8311,-42.307
10.195,-34.106
59.968,-13.232
-7.4909,-37.427
-33.286,-6.6236
31.267,34.179
-31.929,-27.826
10.786,29.935
8.2834,33.067
-33.653,-36.316
-33.13,-14.118
-3.4711,-0.98321
24.739,30.797
50.762,-15.595
3.0961,-28.964
43.735,31.14
-29.243,-21.267
49.808,-14.831
6.3933,-30.018
-28.773,-30.31
14.022,-15.501
51.854,0.33907
40.33,5.584
-53.842,-11.983
33.484,30.706
59.986,-16.163
47.852,9.6329
34.635,27.237
40.626,13.529
30.904,35.995
44.733,-6.2728
-30.834,6.5044
-52.743,-10.549
58.452,-10.73
-34.677,3.133
48.035,-9.6081
-12.741,-19.719
-40.251,-4.4264
-15.385,15.691
48.862,9.9339
29.669,36.561
50.052,10.007
19.234,35.909
4.4364,33.889
46.686,-12.285
42.237,6.5773
58.815,-9.5546
-9.8639,-29.586
10.237,-23.756
-14.045,-30.292
-5.3297,-42.285
41.419,14.309
52.195,-15.146
12.648,-29.093
14.206,23.728
-17.713,7.9529
-55.496,-2.5178
-7.494,12.617
-34.766,-16.103
14.816,-18.439
-26.132,2.5721
1.1659,-29.447
-33.492,-11.511
56.599,-16.075
14.791,46.316
45.244,-0.66661
-17.213,-27.614
-4.2539,-0.39054
-32.235,-18.162
13.009,29.173
53.311,-4.1928
-33.126,-3.4013
9.4783,-23.704
38.671,20.307
2.6438,38.192
-34.114,-15.296
-13.15,-18.256
-34.301,-17.353
17.89,42.823
-11.854,16.368
33.8,24.453
-59.656,8.3437
-33.436,-4.8124
-33.001,-8.6344
39.631,5.5962
-39.615,-4.9579
22.502,26.381
9.8736,-24.641
-19.976,10.107
-8.3031,12.734
13.047,37.72
-36.757,4.189
46.638,-9.0892
-6.1121,-32.984
44.381,-4.1535
41.036,19.373
29.575,33.309
0.25958,-29.971
-31.005,-31.792
40.539,32.431
2.2839,37.427
11.919,-21.455
-31.046,7.2343
18.523,37.046
22.841,22.264
34.217,23.187
-27.499,-30.241
-36.271,-20.433
1.477,-7.9387
45.404,0.86939
33.999,28.392
12.283,-30.368
-20.042,13.878
-31.938,-25.95
-38.521,-16.332
-34.879,-4.5201
7.0826,34.273
-24.404,5.9453
60.945,-17.443
58.07,-11.786
-11.277,-21.744
-71.123,7.7639
53.851,1.9723
-18.704,8.1361
43.396,5.7673
10.203,-32.74
48.059,-15.233
55.368,-5.2068
-10.422,-24.544
50.682,-14.977
40.153,22.088
-9.2456,-39.318
18.892,41.82
3.6825,38.018
48.664,11.651
-11.448,-26.772
42.203,33.253
46.223,14.099
19.612,40.514
-6.6605,-42.93
54.624,2.1495
-16.467,7.2662
12.064,-20.039
-34.999,-20.935
-31.283,7.8707
11.424,-31.441
9.886,35.878
-7.3603,-26.24
-9.0241,-19.836
-13.641,-19.492
-8.6402,10.578
41.864,4.8016
5.2707,-28.655
-28.427,-34.75
16.325,22.546
-34.65,-14.368
10.117,-34.613
-31.686,-20.899
56.571,8.7624
43.608,14.475
-31.601,-18.401
36.005,37.063
-12.321,14.825
-35.552,-33.91
55.355,6.0107
21.495,42.422
43.014,1.0294
-28.721,-0.15399
47.905,-11.537
-28.751,-34.155
2.3417,39.097
-8.7738,-45.159
46.044,-9.6208
12.701,-29.6
45.792,1.4925
23.49,26.856
-9.5824,12.974
47.199,16.36
-29.573,0.15334
0.065202,-28.715
11.565,-19.485
-29.982,-33.157
-54.316,-8.5363
7.9495,-29.141
6.9317,38.367
37.068,31.259
-14.605,11.144
41.868,33.641
9.1756,33.55
-24.526,5.1281
54.138,-13.033
30.944,21.082
-9.0056,-27.871
4.3594,-30.485
33.87,36.787
33.042,34.462
11.331,-18.715
-35.961,-22.246
-8.442,14.134
51.171,-6.9127
39.968,15.253
32.848,23.485
31.957,27.562
47.938,6.9007
-9.5627,15.607
-33.772,-0.59524
19.343,38.963
39.397,18.809
14.68,43.181
13.272,44.912
-13.792,-26.874
-10.892,11.814
12.253,27.606
5.452,-32.805
-16.446,-26.884
-32.901,-35.39
55.488,-16.374
-33.739,-22.333
19.695,42.571
32.075,33.537
54.122,5.7794
52.866,11.158
-37.3,-21.681
11.372,-28.381
-24.607,3.2282
-22.965,-34.155
11.789,-27.666
-11.122,-31.838
-13.857,15.1
16.53,23.61
-8.2933,15.583
46.508,0.61315
32.054,20.95
-12.52,-45.324
23.381,42.19
40.378,11.682
-14.383,-24.943
43.327,12.522
-13.681,8.5891
46.947,0.32713
-32.734,6.0407
16.551,37.346
-7.3093,-39.596
-31.222,-24.75
59.774,-4.2669
7.8988,40.628
-54.475,-9.5649
14.866,23.549
52.719,2.7049
58.253,-15.277
15.381,23.083
-23.478,-36.493
13.2,46.13
-7.73,-29.114
12.577,26.615
-39.76,-4.3763
48.026,-10.762
-7.4167,-35.633
54.832,6.893
34.565,22.442
42.009,34.359
56.168,8.8728
26.708,33.576
-37.287,-17.754
-56.656,6.8313
7.3645,-25.869
-8.3348,-33.804
6.6997,-32.025
38.76,32.572
-17.146,13.115
38.128,20.976
22.088,22.011
21.558,41.535
-36.72,2.8871
8.4828,-31.426
3.0611,-34.031
-21.945,11.301
-32.995,-27.622
12.335,-19.621
40.848,22.354
48.366,-14.631
-12.96,-31.755
-12.616,-31.289
-9.42,-37.722
-1.6847,4.2047
-1.3845,4.8862
-0.99545,6.3261
0.13473,6.5711
0.99136,6.3417
1.9418,6.2138
3.1693,5.8337
4.2647,5.6301
5.6407,5.4094
6.6513,5.1341
7.6358,5.1707
8.5883,5.09
9.2796,4.5942
9.8664,4.1382
10.403,3.5681
9.7368,2.9981
10.321,2.3878
9.5353,2.0046
9.2055,0.98344
8.5677,0.17914
7.9147,-0.42571
7.1589,-0.97366
6.4931,-1.4571
5.6491,-1.6948
4.7783,-2.0535
3.7467,-1.6946
2.9607,-1.1569
2.385,-0.60964
5.7884,-2.4294
7.1487,-2.5661
8.2176,-2.7257
10.838,-3.2372
9.8153,-2.8703
9.0161,-2.7605
11.854,-2.8474
13.113,-2.8498
13.867,-2.1401
14.498,-1.4079
14.084,-0.6567
13.272,0.18498
12.174,0.73418
10.942,1.1032
10.037,1.1476
13.852,0.57775
14.596,0.023803
15.217,-0.45821
15.471,-1.1964
15.596,-2.0839
14.649,-3.3301
14.482,-4.1436
13.328,-4.276
12.249,-4.4608
11.058,-4.4582
10.047,-4.4723
9.2237,-4.0051
8.3301,-3.9433
7.4922,-4.1731
6.6649,-4.0729
5.9311,-4.2662
5.039,-4.2444
3.6197,-3.747
2.4656,-2.9494
1.8648,-2.3036
1.4447,-1.3639
1.6852,5.0662
0.83903,5.1806
0.27909,4.891
0.1458,4.2598
-0.41837,3.9746
-0.48028,3.3378
0.31531,3.1105
0.83092,3.5789
1.547,3.6274
1.3454,4.2971
2.1137,4.4036
8.6447,3.6134
8.1578,4.2694
7.7044,3.8243
-2.4999,4.3823
-2.6371,3.529
-2.0877,2.9911
-1.9979,2.2281
-1.5972,1.5987
-0.93546,1.0633
-0.8574,0.25754
-0.20697,-0.36152
0.047098,-1.1694
0.40786,-1.9397
0.79212,-2.8645
1.31,-3.9921
1.7917,-4.8794
1.4252,-5.6131
2.1747,-6.1031
1.4221,-6.4819
2.375,-6.8702
2.0251,-7.4358
2.5547,-7.8323
2.1161,-8.4024
8.6846,-4.6029
8.9446,-5.3905
9.9966,-6.5165
11.288,-9.2953
11.569,-10.378
12.148,-10.545
11.229,-12.606
11.185,-11.87
11.779,-11.487
12.428,-11.815
13.133,-11.526
13.266,-10.799
14.043,-10.856
14.516,-10.007
15.062,-9.3872
15.706,-8.9101
16.536,-8.7199
17.442,-9.0564
16.552,-9.5539
15.922,-9.9712
15.362,-10.564
15.1,-11.237
16.211,-10.753
16.993,-10.343
17.646,-10.044
17.988,-10.907
17.057,-11.272
16.28,-11.632
15.659,-12.246
14.835,-12.311
14.271,-12.931
13.423,-13.03
12.873,-13.666
12.258,-13.923
12.321,-14.7
13.872,-13.731
13.627,-14.481
14.508,-14.468
14.883,-2.3985
15.332,-3.077
1.348,-7.192
-1.6603,5.6135
-0.82985,5.429
-0.17002,5.9544
-52.645,3.6107
-52.409,2.8715
-51.791,1.5295
-52.481,0.5553
-53.266,0.14878
-54.027,-0.4012
-54.981,-1.0585
-55.847,-1.5972
-56.695,-2.5914
-57.472,-3.2194
-58.205,-3.9816
-58.986,-4.659
-59.828,-4.9313
-60.574,-4.732
-61.535,-4.8547
-61.31,-4.0025
-62.131,-3.9493
-61.836,-3.1178
-62.386,-2.1497
-62.631,-1.1198
-62.672,-0.20335
-62.601,0.75731
-62.532,1.5978
-62.16,2.4216
-61.929,3.3715
-60.965,3.9096
-60.031,4.1677
-59.248,4.2476
-62.778,2.7632
-63.789,1.8287
-64.557,1.0953
-66.565,-0.58433
-65.667,-0.032132
-65.073,0.49692
-67.002,-1.5777
-67.776,-2.6445
-67.572,-3.6376
-67.523,-4.5184
-66.693,-4.5612
-65.545,-4.6535
-64.305,-4.377
-63.324,-3.5883
-62.784,-2.8785
-65.641,-5.3403
-66.553,-5.4214
-67.266,-5.662
-67.987,-5.4038
-68.761,-4.9763
-69.079,-3.5186
-69.616,-2.9183
-68.862,-2.0276
-68.235,-1.105
-67.545,-0.078756
-66.985,0.75503
-66.142,1.1247
-65.551,1.7934
-65.155,2.5436
-64.848,3.2785
-64.482,3.9935
-63.79,4.6016
-62.517,5.3204
-61.08,5.7231
-60.166,5.7658
-59.155,5.48
-54.537,0.7341
-53.844,1.2221
-53.622,1.8209
-53.937,2.3845
-53.713,2.9772
-54.113,3.4852
-54.852,3.1175
-54.903,2.4252
-55.395,1.9001
-54.797,1.5496
-55.285,0.94112
-60.081,-3.6435
-59.269,-3.7723
-59.282,-3.1143
-51.833,3.9406
-52.503,4.6624
-53.273,4.824
-53.93,5.3587
-54.763,5.4041
-55.529,5.7944
-56.354,5.7886
-57.296,5.9902
-58.037,6.479
-58.868,6.6716
-59.874,6.9394
-61.131,7.3035
-62.106,7.5218
-62.604,8.1062
-63.399,7.9009
-63.254,8.7078
-64.155,8.2334
-64.123,9.3672
-64.842,8.7416
-64.992,9.3279
-66.273,1.9045
-66.984,2.2436
-68.364,2.0691
-71.534,2.5549
-72.534,2.7428
-72.892,2.2748
-74.071,4.1019
-73.436,3.7567
-73.542,3.0662
-74.046,2.6171
-74.137,1.8625
-73.612,1.3801
-74.065,0.74381
-73.579,-0.08041
-73.304,-0.85955
-73.143,-1.6377
-73.315,-2.4562
-73.973,-3.1482
-74.082,-2.1075
-74.184,-1.3568
-74.434,-0.58538
-74.844,-0.024772
-74.992,-1.2525
-74.983,-2.1353
-74.931,-2.8734
-75.832,-2.8281
-75.831,-1.7799
-75.782,-0.9059
-75.926,-0.041275
-75.631,0.70613
-75.783,1.5138
-75.489,2.2707
-75.536,3.152
-76.224,3.5951
-75.612,4.176
-76.231,2.3687
-76.94,2.6511
-77.114,1.7976
-68.506,-4.2191
-69.353,-4.2009
-63.966,8.8727
-51.665,2.5746
-52.449,2.0934
-52.622,1.229
