-7.2382,-0.0042801
-7.2412,-0.0042169
-7.2363,-0.0049047
-7.2318,-0.0060258
-7.2316,-0.0050834
-7.2305,-0.0061134
-7.2297,-0.0020832
-7.23,-0.0037907
-7.2297,-0.0038344
-7.2345,-0.0020956
-7.2309,-0.0068698
-7.2291,-0.0011893
-7.2418,-0.0041344
-7.2344,-0.0024498
-7.2271,-0.0021683
-7.2371,-0.0046778
-7.2386,-0.0042771
-7.23,-0.0029948
-7.238,-0.004085
-7.2442,-0.0039063
-7.2307,-0.0055837
-7.2358,0.0002081
-7.232,-0.0062773
-7.234,-0.0019891
-7.2348,-0.00123
-7.238,-0.0013118
-7.2308,-0.0063531
-7.2381,-0.0044266
-7.2367,-0.0022183
-7.2339,-7.2884e-06
-7.2355,0.016885
-7.2359,0.014148
-7.2311,0.013325
-7.2384,0.010601
-7.2415,0.017919
-7.2345,0.016678
-7.2365,0.01797
-7.2281,0.012027
-7.2271,0.013787
-7.2339,0.019519
-7.2298,0.011807
-7.2263,0.018268
-7.239,0.014046
-7.2365,0.015106
-7.235,0.011613
-7.2357,0.016851
-7.2382,0.018681
-7.2334,0.016624
-7.2424,0.011557
-7.2325,0.016455
-7.2308,0.013045
-7.2394,0.016553
-7.234,0.014303
-7.2338,0.012503
-7.2381,0.013426
-7.232,0.013519
-7.231,0.014792
-7.2326,0.015269
-7.2309,0.016009
-7.2347,0.015666
-7.2359,-0.0047645
-7.2307,-0.0065564
-7.2314,-0.0047031
-7.2296,-0.0052145
-7.2323,-0.0049095
-7.2321,-0.0044518
1512.5,-3.156e-07
-7.2383,-0.0045395
-7.234,-0.0036299
-7.2275,-0.0020076
-7.2285,-0.0037144
-7.2344,-0.0057633
-7.2303,0.0031686
-7.2321,-0.0068436
-7.2357,-0.0056448
-7.2297,-0.0051597
-7.2335,-0.0048673
-7.2312,0.0017551
-7.2327,-0.0048889
-7.2337,-0.003412
-7.2442,-0.004015
-7.2443,-0.004162
-7.2361,-0.0050652
-7.2089,-0.011133
-7.2444,-0.0045816
-7.2329,-0.0047269
-7.2328,-0.0022012
-7.2382,-0.0043548
-7.2375,-0.0046501
-7.231,-0.0066569
-7.2404,0.0008978
-7.2424,0.0026455
-7.2364,0.0048823
-7.2338,-0.0032182
-7.2402,0.0023746
-7.2307,0.0011244
-7.2415,0.0011687
-7.2402,0.0025761
-7.244,0.0028637
-7.2432,0.0016996
-7.238,0.00037027
-7.2392,0.0037242
-7.2366,-0.0022289
-7.2304,0.0054473
-7.2427,-0.00033191
-7.2305,-0.0056414
-7.2294,0.0044776
-7.2358,0.0062015
-7.2394,-0.0023012
-7.239,-0.0044774
-7.2382,0.0047754
-7.2399,0.0020842
-7.2372,0.002273
-7.2435,0.0029587
-7.2352,0.0049779
-7.2408,0.0011535
-7.2367,0.0053897
-7.2322,0.0066063
-7.2388,0.0039717
-7.2413,0.0054407
-7.2415,-0.0053994
-7.2415,-0.0053489
-7.243,-0.0055973
-7.2323,-0.002412
-7.246,-0.0036586
-7.2436,-0.0013112
-7.2442,-0.004975
-7.2418,-0.003144
-7.2326,-0.006798
-7.233,-0.005321
-7.2388,-0.0012806
-7.235,-0.0017164
-7.2402,-0.0098759
-7.2448,-0.0004257
-7.245,-0.0022242
-7.2375,-0.0059152
-7.2309,-0.0062821
-7.2451,-0.0022098
-7.2412,-0.0052871
-7.2453,-0.0018004
-7.2329,-0.0025019
-7.2403,-0.0060398
-7.2388,-0.00028591
-7.2459,-0.0011778
-7.2378,-0.00081624
-7.2462,-0.0048029
-7.2437,-0.0022683
-7.2449,-0.0014208
-7.2427,-0.0044016
-7.2354,-0.0053072
-7.2332,0.0032032
-7.2258,-0.0061167
-7.2373,0.003108
-7.2468,0.00052122
-7.2435,0.0041948
-7.2428,0.0018399
-7.2426,0.00033119
-7.2434,0.0011902
-7.2334,0.0028979
-7.2349,0.0029823
-7.234,-0.0023894
-7.2343,0.001177
-7.2426,0.00069444
-7.2421,0.0027421
-7.2416,0.0016055
-7.2364,0.003106
-7.241,0.0015163
-7.2386,-1.5783e-05
-7.2358,0.0013161
-7.2381,-0.0014247
-7.227,0.00041502
-7.2454,0.0017776
-7.2401,0.0033366
-7.2457,0.0032994
-7.2459,0.0022833
-7.2407,0.0015735
-7.2449,0.0018172
-7.2268,-0.00016824
-7.2364,0.00095899
-7.2334,0.002982
-7.2421,-0.0023941
-7.2345,-0.0051821
-7.2339,-0.0059832
-7.2368,-0.0076022
-7.236,-0.0082185
-7.2304,-0.0085675
-7.2441,-0.0089619
-7.2398,-0.0039466
-7.2413,-0.0040759
-7.2303,-0.011797
-7.2344,-0.0094101
-7.2456,-0.0048373
-7.2432,-0.0057775
-7.2337,-0.0058231
-7.2344,-0.0091064
-7.2378,-0.0076953
-7.2455,-0.0058804
-7.2447,-0.0044933
-7.232,-0.0079316
-7.2344,-0.0081109
-7.2365,-0.0092086
-7.2347,-0.0065792
-7.2329,-0.004198
-7.2449,-0.0052833
-7.2453,-0.0060509
-7.2327,-0.010595
-7.2422,-0.006899
-7.2433,-0.0076165
-7.2444,-0.0078798
-7.2441,-0.0054188
